…
``` r
gapminder_fil <-
  filter(gapminder, year == 1952) %>% 
  filter(continent == "Asia")
gapminder_fil
```

    ## # A tibble: 33 × 6
    ##    country          continent  year lifeExp       pop gdpPercap
    ##    <fct>            <fct>     <int>   <dbl>     <int>     <dbl>
    ##  1 Afghanistan      Asia       1952    28.8   8425333      779.
    ##  2 Bahrain          Asia       1952    50.9    120447     9867.
    ##  3 Bangladesh       Asia       1952    37.5  46886859      684.
    ##  4 Cambodia         Asia       1952    39.4   4693836      368.
    ##  5 China            Asia       1952    44   556263527      400.
    ##  6 Hong Kong, China Asia       1952    61.0   2125900     3054.
    ##  7 India            Asia       1952    37.4 372000000      547.
    ##  8 Indonesia        Asia       1952    37.5  82052000      750.
    ##  9 Iran             Asia       1952    44.9  17272000     3035.
    ## 10 Iraq             Asia       1952    45.3   5441766     4130.
    ## # ℹ 23 more rows
…
### **q3** You should have found *at least* three outliers in q2 (but possibly many more!). Identify those outliers (figure out which countries they are).

``` r
## TASK: Identify the outliers from q2
large_outlier <-
  gapminder %>% 
  filter(year == year_min) %>% 
  arrange(desc(gdpPercap))

large_outlier
```

    ## # A tibble: 142 × 6
    ##    country        continent  year lifeExp       pop gdpPercap
    ##    <fct>          <fct>     <int>   <dbl>     <int>     <dbl>
    ##  1 Kuwait         Asia       1952    55.6    160000   108382.
    ##  2 Switzerland    Europe     1952    69.6   4815000    14734.
    ##  3 United States  Americas   1952    68.4 157553000    13990.
    ##  4 Canada         Americas   1952    68.8  14785584    11367.
    ##  5 New Zealand    Oceania    1952    69.4   1994794    10557.
    ##  6 Norway         Europe     1952    72.7   3327728    10095.
    ##  7 Australia      Oceania    1952    69.1   8691212    10040.
    ##  8 United Kingdom Europe     1952    69.2  50430000     9980.
    ##  9 Bahrain        Asia       1952    50.9    120447     9867.
    ## 10 Denmark        Europe     1952    70.8   4334000     9692.
    ## # ℹ 132 more rows
…
